%YAML 1.1
%TAG !u! tag:unity3d.com,2011:
--- !u!1045 &1
EditorBuildSettings:
  m_ObjectHideFlags: 0
  serializedVersion: 2
  m_Scenes:
  - enabled: 1
    path: Assets/Scenes/DeliverySuite.unity
    guid: 9fc0d4010bbf28b4594072e72b8655ab
  m_configObjects:
    Unity.XR.Oculus.Settings: {fileID: 11400000, guid: da319547c5a9c0d48ab7b4e8b0dd922a,
      type: 2}
    com.unity.xr.management.loader_settings: {fileID: 11400000, guid: 7e37550d526fda04d9f397323e390fd9,
      type: 2}
    com.unity.xr.openxr.settings4: {fileID: 11400000, guid: c08771b9b0b135046ac14f99ca031064,
      type: 2}
